INDEX VERSION 1.131+/home/maripaz/eclipse-workspace/.metadata/.plugins/org.eclipse.jdt.core
3971676071.index
1108001562.index
1802553429.index
2612757171.index
52622509.index
6160005.index
2668068247.index
3096400281.index
3023328572.index
2368005359.index
2274261199.index
254361294.index
2390640539.index
3629963035.index
450142201.index
1519715802.index
1797316369.index
